/dev/sda: PTUUID="db218fad" PTTYPE="dos"
/dev/sda1: UUID="62565df74d011cc9" TYPE="ufs" PTTYPE="dos" PARTUUID="db218fad-01"
/dev/sda2: UUID="59823da3-49a4-419f-bc45-9778c2387e1d" SEC_TYPE="ext2" TYPE="ext3" PARTUUID="db218fad-02"
/dev/sda3: UUID="b179c123-92cd-41db-acbf-a321dd5416fd" SEC_TYPE="ext2" TYPE="ext3" PARTUUID="db218fad-03"
/dev/sda4: UUID="5e8bed8a-f358-487e-aade-f3c4046a178e" TYPE="ext3" PARTUUID="db218fad-04"
/dev/sda5: UUID="62565df74d011cc9" TYPE="ufs" PTTYPE="dos"


==> /dev/sda4 on / type ext3 (rw,relatime,data=ordered)



